{
  "code": "0",
  "msg": "success",
  "resultData": {
    "totalRecords": 13397,
    "pageNo": 1,
    "imageUrl": "https://d.inst-service.htsc.com/s3-001005-inst/public/inst/mdc/20230426/20230426101224.png",
    "totalPages": 1340,
    "pageSize": null,
    "prdtNavList": [
      {
        "firstParticipation": "1.00%",
        "riskLevel": 3,
        "rateMonth6": "142.81%",
        "rateSinceFund": "282.02%",
        "rateMonth1": "14.48%",
        "rateMonth3": "16.33%",
        "annualYield": "--",
        "prdtName": "永赢科技智选混合型发起式证券投资基金",
        "duration": null,
        "prdtAbbr": "永赢科技智选混合发起A",
        "unitNav": "3.8202",
        "rateYear5": "--",
        "dailyReturn": "--",
        "accuUnitNav": "3.8202",
        "rateWeek": "5.55%",
        "rateYear2": "--",
        "prdtId": 3395525741,
        "rateYear1": "218.11%",
        "enterPoolReturnTot": null,
        "selfSelectionAdded": 0,
        "rateYear4": "--",
        "rateYear3": "--",
        "changeRate": "-0.23%",
        "class": "com.htsc.inst.mdc.dto.resp.condition.PrdtNavInfo",
        "annuRateSinceFund": "--",
        "navDate": 1766678400000,
        "prdtCode": "022364",
        "labelList": [],
        "rateSinceYear": "236.88%",
        "postNetUnit": "3.8202",
        "salesStatus": 0
      },
      {
        "firstParticipation": "1.00%",
        "riskLevel": 3,
        "rateMonth6": "142.10%",
        "rateSinceFund": "279.30%",
        "rateMonth1": "14.43%",
        "rateMonth3": "16.16%",
        "annualYield": "--",
        "prdtName": "永赢科技智选混合型发起式证券投资基金",
        "duration": null,
        "prdtAbbr": "永赢科技智选混合发起C",
        "unitNav": "3.7930",
        "rateYear5": "--",
        "dailyReturn": "--",
        "accuUnitNav": "3.7930",
        "rateWeek": "5.54%",
        "rateYear2": "--",
        "prdtId": 3395525743,
        "rateYear1": "216.11%",
        "enterPoolReturnTot": null,
        "selfSelectionAdded": 0,
        "rateYear4": "--",
        "rateYear3": "--",
        "changeRate": "-0.23%",
        "class": "com.htsc.inst.mdc.dto.resp.condition.PrdtNavInfo",
        "annuRateSinceFund": "--",
        "navDate": 1766678400000,
        "prdtCode": "022365",
        "labelList": [],
        "rateSinceYear": "234.80%",
        "postNetUnit": "3.7930",
        "salesStatus": 0
      },
      {
        "firstParticipation": "1.00%",
        "riskLevel": 3,
        "rateMonth6": "142.01%",
        "rateSinceFund": "269.84%",
        "rateMonth1": "16.44%",
        "rateMonth3": "22.00%",
        "annualYield": "--",
        "prdtName": "中航机遇领航混合型发起式证券投资基金",
        "duration": null,
        "prdtAbbr": "中航机遇领航混合发起A",
        "unitNav": "3.6984",
        "rateYear5": "--",
        "dailyReturn": "--",
        "accuUnitNav": "3.6984",
        "rateWeek": "5.45%",
        "rateYear2": "314.39%",
        "prdtId": 1650420206,
        "rateYear1": "152.64%",
        "enterPoolReturnTot": null,
        "selfSelectionAdded": 0,
        "rateYear4": "--",
        "rateYear3": "--",
        "changeRate": "-0.97%",
        "class": "com.htsc.inst.mdc.dto.resp.condition.PrdtNavInfo",
        "annuRateSinceFund": "--",
        "navDate": 1766678400000,
        "prdtCode": "018956",
        "labelList": [],
        "rateSinceYear": "175.65%",
        "postNetUnit": "3.6984",
        "salesStatus": 0
      },
      {
        "firstParticipation": "1.00%",
        "riskLevel": 3,
        "rateMonth6": "141.30%",
        "rateSinceFund": "264.53%",
        "rateMonth1": "16.39%",
        "rateMonth3": "21.82%",
        "annualYield": "--",
        "prdtName": "中航机遇领航混合型发起式证券投资基金",
        "duration": null,
        "prdtAbbr": "中航机遇领航混合发起C",
        "unitNav": "3.6453",
        "rateYear5": "--",
        "dailyReturn": "--",
        "accuUnitNav": "3.6453",
        "rateWeek": "5.44%",
        "rateYear2": "309.45%",
        "prdtId": 1650420208,
        "rateYear1": "151.14%",
        "enterPoolReturnTot": null,
        "selfSelectionAdded": 0,
        "rateYear4": "--",
        "rateYear3": "--",
        "changeRate": "-0.97%",
        "class": "com.htsc.inst.mdc.dto.resp.condition.PrdtNavInfo",
        "annuRateSinceFund": "--",
        "navDate": 1766678400000,
        "prdtCode": "018957",
        "labelList": [],
        "rateSinceYear": "174.04%",
        "postNetUnit": "3.6453",
        "salesStatus": 0
      },
      {
        "firstParticipation": "10.00%",
        "riskLevel": 3,
        "rateMonth6": "122.82%",
        "rateSinceFund": "178.30%",
        "rateMonth1": "13.78%",
        "rateMonth3": "15.00%",
        "annualYield": "--",
        "prdtName": "红土创新新兴产业灵活配置混合型证券投资基金",
        "duration": null,
        "prdtAbbr": "红土创新新兴产业混合A",
        "unitNav": "2.7830",
        "rateYear5": "85.04%",
        "dailyReturn": "--",
        "accuUnitNav": "2.7830",
        "rateWeek": "5.70%",
        "rateYear2": "182.83%",
        "prdtId": 2955717,
        "rateYear1": "137.66%",
        "enterPoolReturnTot": null,
        "selfSelectionAdded": 0,
        "rateYear4": "22.70%",
        "rateYear3": "89.19%",
        "changeRate": "-1.52%",
        "class": "com.htsc.inst.mdc.dto.resp.condition.PrdtNavInfo",
        "annuRateSinceFund": "--",
        "navDate": 1766678400000,
        "prdtCode": "001753",
        "labelList": [],
        "rateSinceYear": "153.00%",
        "postNetUnit": "2.7830",
        "salesStatus": 0
      },
      {
        "firstParticipation": "1.00%",
        "riskLevel": 3,
        "rateMonth6": "112.16%",
        "rateSinceFund": "101.59%",
        "rateMonth1": "12.50%",
        "rateMonth3": "21.99%",
        "annualYield": "--",
        "prdtName": "华商均衡成长混合型证券投资基金",
        "duration": null,
        "prdtAbbr": "华商均衡成长混合A",
        "unitNav": "2.0159",
        "rateYear5": "--",
        "dailyReturn": "--",
        "accuUnitNav": "2.0159",
        "rateWeek": "4.84%",
        "rateYear2": "162.45%",
        "prdtId": 292824652,
        "rateYear1": "135.09%",
        "enterPoolReturnTot": null,
        "selfSelectionAdded": 0,
        "rateYear4": "--",
        "rateYear3": "130.39%",
        "changeRate": "-1.93%",
        "class": "com.htsc.inst.mdc.dto.resp.condition.PrdtNavInfo",
        "annuRateSinceFund": "--",
        "navDate": 1766678400000,
        "prdtCode": "011369",
        "labelList": [],
        "rateSinceYear": "142.76%",
        "postNetUnit": "2.0159",
        "salesStatus": 0
      },
      {
        "firstParticipation": "1.00%",
        "riskLevel": 3,
        "rateMonth6": "111.53%",
        "rateSinceFund": "95.98%",
        "rateMonth1": "12.45%",
        "rateMonth3": "21.81%",
        "annualYield": "--",
        "prdtName": "华商均衡成长混合型证券投资基金",
        "duration": null,
        "prdtAbbr": "华商均衡成长混合C",
        "unitNav": "1.9598",
        "rateYear5": "--",
        "dailyReturn": "--",
        "accuUnitNav": "1.9598",
        "rateWeek": "4.82%",
        "rateYear2": "159.34%",
        "prdtId": 292824654,
        "rateYear1": "133.73%",
        "enterPoolReturnTot": null,
        "selfSelectionAdded": 0,
        "rateYear4": "--",
        "rateYear3": "126.30%",
        "changeRate": "-1.93%",
        "class": "com.htsc.inst.mdc.dto.resp.condition.PrdtNavInfo",
        "annuRateSinceFund": "--",
        "navDate": 1766678400000,
        "prdtCode": "011370",
        "labelList": [],
        "rateSinceYear": "141.35%",
        "postNetUnit": "1.9598",
        "salesStatus": 0
      },
      {
        "firstParticipation": "0.01%",
        "riskLevel": 3,
        "rateMonth6": "86.62%",
        "rateSinceFund": "208.64%",
        "rateMonth1": "8.22%",
        "rateMonth3": "3.69%",
        "annualYield": "--",
        "prdtName": "中欧数字经济混合型发起式证券投资基金",
        "duration": null,
        "prdtAbbr": "中欧数字经济混合发起A",
        "unitNav": "3.0864",
        "rateYear5": "--",
        "dailyReturn": "--",
        "accuUnitNav": "3.0864",
        "rateWeek": "4.24%",
        "rateYear2": "220.47%",
        "prdtId": 1707393495,
        "rateYear1": "131.10%",
        "enterPoolReturnTot": null,
        "selfSelectionAdded": 0,
        "rateYear4": "--",
        "rateYear3": "--",
        "changeRate": "-0.21%",
        "class": "com.htsc.inst.mdc.dto.resp.condition.PrdtNavInfo",
        "annuRateSinceFund": "--",
        "navDate": 1766678400000,
        "prdtCode": "018993",
        "labelList": [],
        "rateSinceYear": "143.73%",
        "postNetUnit": "3.0864",
        "salesStatus": 0
      },
      {
        "firstParticipation": "1.00%",
        "riskLevel": 1,
        "rateMonth6": "102.20%",
        "rateSinceFund": "104.83%",
        "rateMonth1": "48.00%",
        "rateMonth3": "69.65%",
        "annualYield": "--",
        "prdtName": "国投瑞银白银期货证券投资基金(LOF)",
        "duration": null,
        "prdtAbbr": "国投瑞银白银期货(LOF)A",
        "unitNav": "2.0483",
        "rateYear5": "121.44%",
        "dailyReturn": "--",
        "accuUnitNav": "2.0483",
        "rateWeek": "17.43%",
        "rateYear2": "165.67%",
        "prdtId": 2914345,
        "rateYear1": "129.81%",
        "enterPoolReturnTot": null,
        "selfSelectionAdded": 0,
        "rateYear4": "-8.16%",
        "rateYear3": "182.52%",
        "changeRate": "5.21%",
        "class": "com.htsc.inst.mdc.dto.resp.condition.PrdtNavInfo",
        "annuRateSinceFund": "--",
        "navDate": 1766678400000,
        "prdtCode": "161226",
        "labelList": [
          "1031371"
        ],
        "rateSinceYear": "132.84%",
        "postNetUnit": "2.0483",
        "salesStatus": 0
      },
      {
        "firstParticipation": "0.01%",
        "riskLevel": 3,
        "rateMonth6": "86.07%",
        "rateSinceFund": "204.48%",
        "rateMonth1": "8.16%",
        "rateMonth3": "3.54%",
        "annualYield": "--",
        "prdtName": "中欧数字经济混合型发起式证券投资基金",
        "duration": null,
        "prdtAbbr": "中欧数字经济混合发起C",
        "unitNav": "3.0448",
        "rateYear5": "--",
        "dailyReturn": "--",
        "accuUnitNav": "3.0448",
        "rateWeek": "4.22%",
        "rateYear2": "216.70%",
        "prdtId": 1707393497,
        "rateYear1": "129.74%",
        "enterPoolReturnTot": null,
        "selfSelectionAdded": 0,
        "rateYear4": "--",
        "rateYear3": "--",
        "changeRate": "-0.21%",
        "class": "com.htsc.inst.mdc.dto.resp.condition.PrdtNavInfo",
        "annuRateSinceFund": "--",
        "navDate": 1766678400000,
        "prdtCode": "018994",
        "labelList": [],
        "rateSinceYear": "142.30%",
        "postNetUnit": "3.0448",
        "salesStatus": 0
      }
    ],
    "class": "com.htsc.inst.mdc.dto.resp.condition.PrdtNavResp",
    "trackData": {
      "fundType": null,
      "classify": null,
      "oneAccountId": null,
      "fundCode": null,
      "company": null,
      "saleStatus": null,
      "fundName": null,
      "managerName": null,
      "class": "com.htsc.inst.mdc.dto.resp.fund.TrackData"
    }
  }
}